Anbu Raj;IN6789;F;12345-ENT;03/01/17;03/03/17
Anbu Arun;IN6789;F;12345-ENT;05/01/17;11/03/17
Anbu kali;IN6789;F;12345-ENT;08/02/17;11/03/17
Anbu Muru;IN6789;F;12345-NEU;08/02/17;11/03/17
Anbu Pal;IN6789;F;12345-GEN;09/02/17;11/03/17